First Name,Last Name,Company name,Role
Jacquelyn,Adama,Marketo,Solutions Consultant
Dinesh,Arasaratnam,Teleskope,Managing Partner
Aditya,Ardiani,Percolate Galactic,Business Development Manager
Kenan,Arif,S2M Digital,"Associate Director, APAC"
Richard,Avery,iClick Interactive,Senior Regional Sales
Isabella,Barbato,Outbrain Singapore,Head of Marketing APAC
Darren,Beck,PRecious Communications,Associate Consultant
Alexis,Bibard,Getty Images - iStock Photos,Business Development Manager
Richard,Biggs,Blippar,Growth Director - APAC
Antoine,Bouchacourt,Shootsta,VP - Asia
Aaron,Brooks,Visual Amplifiers (VAMP),Co-Founder & Director
Oliver,Budgen,Bold Media,Head of APAC
Richard,Burrage,Cimigo,Managing Partner
Tim,Burrowes,Mumbrella,Founder & Content Director
Dean,Carroll,Mumbrella,"Publisher, Mumbrella Asia"
Eileen,Chan,Content.co,"Director, Commercial"
Yi,Wen,Content.co,Head of Content
Melissa,Chan,Williams Lea Tag,Managing Director Asia
Ashwin,Chandoesing,IndaHash,Business Development Director APAC
Ian,Chapman-Banks,Sqreem Technologies,CEO
James,Chen,Singapore Life,Content Strategist
Simon,Cholmeley,John Brown Novus,CEO
Meng,Kiat,Akimi Technologies Pte Ltd,CEO
Ian,Clay,Technical Publicity Asia Pte Ltd.,Managing Director
Stephen,Dale,Digimind,"General Manager, APAC"
Andrew,Darling,Blis,Director of Global Communications
Jean-Pierre,De,BUT Pte Ltd,Managing Director
Melissa,de,Editor Group,"Manager, Senior Writer & Editor"
Andrea,Edwards,The Digital Conversationalist,CEO
Nick,Fawbert,Mutiny Asia,Founder
Nick,Foley,Landor,"President, South East Asia Pacific & Japan"
Adam,Furness,RhythmOne (formerly RadiumOne),Managing Director
Emma,Gage,Fiftyfive5 Asia,Managing Director
Helena,Gamvros,Outbrain Singapore,"Strategic Partnerships Director, Amplify"
Paul,Garrity,Impulse Screen Media,CEO
Adam,Gerard,UNTITLED - Project,Business Director
Regina,Goh,Blis,"Managing Director, Asia"
Shufen,Goh,R3 Worldwide,Founder
Marc,Goh,Design Prodigy,Director
Anna,Gong,Perx Technologies,Founder & CEO
Alycia,Graemer,Aspire,Head of Practice
Belinda,Green,gyro,Head of Planning APAC
Reheen,Guin,Digital Crew & Panda Metrics,Director and Co-founder
David,Haddad,IPG Mediabrands,"Managing Director, Singapore"
Jenny,Hall,Eyeka Asia Pacific Pte Ltd,Global Business Director
Anna,Hamill,Warc.com,Asia Editor
Mike,Handes,Marketo,"Director, Customer Succes"
Sarah,Hargreaves,OMD International,OMD International Managing Partner
Rina,Harman,90 Seconds,Brand Success Lead
Thomas,Haugan,Williams Lea Tag,"Business Development Director, APAC"
Toby,Hemming,Bold Media,Director
Sherlyn,Hi,OOH Media,Assistant Vice President
Herbert,Ho,Williams Lea Tag,Business Development Director
Leon,Hudson,123RF,"VICE PRESIDENT, GLOBAL SALES"
Fionn,Hyndman,Outbrain,"Commercial Director, APAC_"
Aneliese,Hynes,Mumbrella,Partnerships Manager APAC
Rachel,Jena,PHD Global Strategy Unit,Communications Strategist
Manesh,Karnani,Telum Media Group PTE Ltd,Regional Team Leader - SEA
Simon,Kearney,Click2View Asia,CEO
Vivienne,Kelly,Mumbrella,Editor
Chaz,Kim,90 Seconds,Growth Manager
Aditi,Kohli,Near,"General Manager, South East Asia & Hong Kong, Near"
Shilpa,Kolte,AppNexus,Account Director
Otohiko,Kozutsumi,AdAsia Holdings,Chief Operating Officer and Co-founder
Steve,Lawler,Eyeyah,Creative Director
Scott,Lee,Exponential,"Country Manager, Singapore"
Karen,Lee,DirectAsia Insurance Singapore,Head of Marketing
Sam,Lee,Taboola,Country Manager SEA
Ophenia,Liang,Digital Crew,Co-Founder and Director
Krystal,Liau,Mills (Singapore) Pte Ltd,Executive Creative Director
Nicole,Liebmann,Exponential Asia Pacific and South Africa,Head of Mobile APAC & South Africa
Celine,Liew,Exponential,"Country Manager, Malaysia"
Alex,Light,VICE Australia,"General Manager, Brand Partnerships"
Stu,Lloyd,"Hotheads Innovation, and CATMATDOG",Chief Hothead and TopDog
Angeline,Lodhia,Inskin Media Asia,General Manager
Chris,Lu,AdAsia Holdings,"Senior Regional Manager, Communications"
Isabella,Lung,Pixels,Regional Sales Manager
Michelle,Mah,SGK,"Marketing & Communications Manager, APAC"
Lily,Mak,ON24,Webinar Marketing Specialist
Marc,Mallett,"ESPN, The Walt Disney Company","Head of Sales, Asia Pacific"
Scott,McBride,IPG Mediabrands,"Chief Digital Officer, APAC"
David,McCaughan,ai.agency Bibliosexual,Chief Strategy Officer Storyteller@Bibliosexual
Naomi,Michael,IPG Mediabrands,"Head of Marketing & Communications, APAC"
Jay,Morgan,The Monkeys,Innovations Director
Peter,Murray,South China Morning Post,International Business Director
Priyanka,Nadkarni,Window Seat Group,Marketing Director
Niraj,Nagpal,IPONWEB,"Director of Business Development,APAC"
Pankaj,Nayak,Omnicom Media Group Asia Pacific,Business Development Director - Asia Pacific
Vitaliy,Nechaev,Vostok VR (managed by Delphius Pte Ltd),Principal VR Filmmaker
Michael,O'Donnell,Ziff Davis B2B,Regional Director
Ed,Pank,WARC,"Managing Director, APAC"
Lynette,Pathy,Ematic Solutions,Senior Marketing Manager & Lead
Antoinette,Patterson,Perform Group,Sales Manager - SEA
Matt,Pearman,LEWIS Communications,"Account Director, Singapore"
Jeff,Perkins,Thomson Reuters,Commercial Director- EMEA
Scott,Pettet,LEWIS Communications,"Senior Vice President, APAC"
Andrew,Pickup,Microsoft Asia,"Senior Director, Communications"
Dominic,Powers,CtrlShift,"Investor, Advisor, Connector"
Putri,Purnomo,Percolate Galactic,Director of Multimedia Production
Maddy,Rao,Devries Global (Singapore),EVP
Vinnie,Romano,Frizbee,Managing Director
Vanessa,Sanzovo,BGC Residential,Marketing Manager
Freya,Simpson,The Giles Agency,Director
Kiri,Sinclair,Sinclair,Managing Director
Danny,Singh,NewBase,"Commercial Director, Digital SEA"
Saloni,Singh,Ematic Solutions,"VP, Customer Success and Growth"
Timi,Siytangco,Asia Content Marketing Association,Vice Chairman
Ben,Slack,Tennis Australia / Australian Open,Head of International Business
Gil,Snir,Bench,CCO
Owen,Stableford,Thomson Reuters,"Commercial Manager, Reuters Plus APAC"
Deborah,Steele,ABC Australia,Manager News Syndication
James,Sugrue,AFK Agency,Founder
Deanie,Sultana,Nielsen,"Head of Marketing & Communications, Growth & Emerging Markets"
Lewis,Tam,Thomson Reuters,"Content Solutions, Client Partner"
Stephen,Tracy,YouGov Asia-Pacific,"Managing Director, Southeast Asia"
Akshay,Trivedi,Johnson & Johnson,"APAC Digital Lead - Johnson's Baby, Creative Excellence & Regional Social Media"
Danielle,Uskovic,Lenovo,Head of Digital Marketing Asia Pacific
Francisco,Villanueva,One9ninety Pte Ltd,Business Development Director
Lars,Voedisch,PRecious Communications,"Principal Consultant, Managing Director"
Joe,Wadakethalakal,Brilio.net,CEO & Co-Founder
Vargilia,Welford,Exponential Interactive,Sales Manager
Simon,White,Jukin Media,Director - Licensing and Partnerships
Tobias,Wilson,APD Singapore/IAB,CEO/Chairman
Carl,Witton,Deltek | Workbook Software,Chief Executive Officer - Asia Pacific
Kelyn,Wong,ON24,Customer Success Manager
Meilin,Wong,SGK,"Regional Director, Business Development"
Darren,Woolley,TrinityP3,Global CEO
Fairil,Yeo,LEWIS Communications,MD Singapore & APAC Head of Digital
Megan,Yulga,Circles.Life,Marketing Manager
Siegli,Bacudio,Squared Online,Sponsorship Sales and Marketing
Julian,Barrans,TrinityP3 Global Marketing Management Consultants,Regional Business Director APAC
Josephine,Chan,Getty Images Pte Ltd,Key Account Manager
Siqi,Chung,Zouk Consulting Pte Ltd,Legal & Marketing Communications Director
Chris,Connell,Marketo,"Senior Director, Marketing"
Richard,Cope,Mintel,International Trends Consultant
Geoffrey,Dickman,"Auto & General Group trading as Budget Direct Insurance, Singapore and EasyCompare, Thailand","Head of Marketing, Southeast Asia"
Oliver,Eriksson,VML Southeast Asia & India,Regional Head of Global Advisory
Joe,Escobedo,Happy Marketer,Director of Content Marketing
Damian,Francis,Mumbrella,Head of Event Content
Christopher,Gomez,XR Alliance,Founding Member
Alex,Hayes,Mumbrella,Publisher of Live & Bespoke
Niall,Hogan,Integral Ad Science (IAS),"Managing Director, South East Asia"
Rose,Huskey,Maxus,"Chief Client Officer, Asia Pacific"
Darren,Jacobs,iClick Interactive Asia Limited,Head of Global Digital Media
Elgen,Kua,MP & Silva,"Director, Marketing and Communications (APAC)"
Martin,Lane,Mumbrella,CEO
ShuQi,Liu,Q Communications,Director
Annette,Male,DIgitasLBi,"CEO, APAC"
Vivek,Misra,AdAsia Holdings,"Vice President, Corporate Strategy"
Balazs,Molnar,Aliz Technologies,CEO
Jacqueline,Shorey,Click2View Asia,Editorial Content Director
Roche,Vandenberghe,FWD Life Insurance Corporation,Head of Marketing
Alvin,Wong,dataxu,"Regional Director, SEA"
Jean-Michel,Wu,Grace Blue,"CEO, APAC"
Eunice,Yap,The Esplanade Co Ltd,Chief Marketing Officier
Mongchee,Chang,Ooyala,"Head of Marketing, Asia Pacific & Japan"
Eleanor,Dickinson,Mumbrella,Editor Mumbrella Asia
Ambba,Kuthiala,Eyeka Asia Pacific Pte Ltd,APAC managing director
Crispian,Leong,7-Eleven,Head of Marketing
Roshni,Mahtani,Tickled Media,Founder & CEO
Charlotte,Nors,Singapore Repertory Theatre,Managing Director
Sam,Olsen,SI Partners,Director
Terri,Seow,BBC Global News,VP Marketing & Insights
Chris,Steedman,M&C Saatchi Mobile,APAC Managing Director
Assaf,Tarnopolsky,LinkedIn,"Director, Marketing Solutions - South East Asia & North Asia"
Vanessa,Radd,XR Alliance,Founding Member
Shirley,Chen,South China Morning Post,Senior Advertising Manager
Richa,Goswami,Johnson & Johnson,"Asia Pacific Chief Digital and Innovation Officer, Consumer Healthcare Businesses"
Cindy,Ng,Asian Television Awards,Managing Director
Virginia,Ng,KFC Singapore,Former Senior Marketing Director
Harriet,de,Brand Learning,Managing Director & Board Partner
Nicola,Eliot,BBC Worldwide,"Head of Content, BBC StoryWorks APAC"
Gary,Fung,RadiumOne,Business Development Manager
Clement,Gosse,Brightcove,Channel Sales Director
Thomas,Gouy,AppNexus,"Senior Manager, Enterprise - JAPAC"
Dave,Holland,Bartle Bogle Hegarty (BBH),Creative Director - BLACK SHEEP Design
Steve,Jones,Mumbrella,Chief reporter
Lachlan,Kean,RhythmOne (formerly RadiumOne),Sales Group Head
Patrick,Keenan,Litmus PR,Managing Director
Scott,Kimpton,ABC Australia,Sales Manager - News and Current Affairs
Claire,Lim,Ogilvy & Mather,Regional Director
Tim,Lindley,BBH,Managing Partner - Black Sheep Studios
Rachael,Lua,Getty Images Pte Ltd,Business Development Executive
Ryan,Pestano,IPONWEB,"General Manager, APAC"
Rahul,Pushkarna,Sony Pictures Home Entertainment,"Director, Sales Development"
James,Redden,2CV Research,Managing Director
James,Sampson,DataXu,"VP & General Manager, APAC"
Sid,Tuli,Bartle Bogle Hegarty,Business Director
Celine,Veloso,Outbrain Singapore,Business Development Director
Heather,Ang,Mediacorp Pte Ltd,AVP Marketing
Asiya,Bakht,Havas Group,"Director - Marketing Communications, Asia Pacific"
Joey,Bian,JD.com,Head of Adtech Innovations
Charlie,Blower,Blak Labs,Co-Founder & Managing Partner
Emma,Jenkins,LEWIS Communications,"Vice President, APAC"
Amirah,Mustaffa,Hong Bao Media,Assistant Producer
Deepika,Nikhilender,CtrlShift,CEO
Casey,Penney,Johnson & Johnson,"Head of Digital - Beauty, Asia Pacific"
Alvaro,Quesada,Tinkle,Business Director
Anthony,Tsang,Moat,"Manager, Account Management"
Peter,Bakker,Immedia Services,Managing Director
Katherine,McHugh,SpotX,"Director, Demand Facilitation"
Howie,Tan,AppNexus,Senior Business Development
Sean,Tan,Brightcove,"Head of Brands and Agencies, Asia"
Hina,Kotecha,Williams Lea Tag,"Marketing Director, APAC and Global Head of Marketing"
Madelene,Lim,Getty Images Pte Ltd,Key Account Manager
Maria,Rahajeng,NBCUniversal,E! News Asia Presenter / Digital Content Creator
ARIEL,TALBI,TaKanto Virtual Reality,CEO
John,Yeo,MP Silva,Head of Legal Asia
Candice,Chin,Tickled Media,Marketing Executive
David,Nemes,BuzzFeed,"Vice President, Brand Strategy"
Shinji,Oka,Thomson Reuters,Head of Marketing & Business Development Asia
Danny,Purnomo,Brilio.net,Chief Marketing Officer & Co-Founder
Wendy,Walker,Intuit,Head of Marketing | Global Expansion
Joyce,Chung,Belkin International,Senior Marketing Manager - ApeA
Roger,Graham,Hootsuite,"Sr. Director, Growth & Marketing, APAC"
Evangeline,Leong,Kobe Global Technologies,Director
Gwen,Tan,Bose Corp,Digital Social Manager APAC
Heidi,Knight,Unilever,Procurement Director Marketing
Jordan,Mandel,Taboola,"Country Manager, Emerging Markets"
Kee,Haur,Sport Singapore,Assistant Director
Billy,Chen,South China Morning Post,"Client Director, International Sales"
Amy,Pak,airbnb,"Connections & Media Activation Manager, APAC"
Jane,Thor,Salesforce,"Marketing Campaigns Manager, Asia"
Priyanka,Nath,Expedia Inc,Digital Marketing Lead | Global Partner Marketing
Kai,Ying,Mediacorp Pte Ltd,Asst Social Media Community Manager
Peter,Giakoumelos,Viacom International Media Networks,"Vice President, Advertising Sales"
Simon,Talvard,IPG Mediabrands,Head of Digital Solutions
Edward,Bray,LinkedIn,Director of Marketing
Kaashni,Soin,Getty Images,Head of Singapore
Natalie,Tan,Stanley Black & Decker,Senior Channel Manager
Ben,Draycott-Jones,Shootsta,Customer Success Manager
Yvonne,Tey,UA Sports,"Marketing Director, South East Asia"
Rudy,Handoko,Universitas Prasetiya Mulya,"Vice Dean III, Student Affairs"
Pamela,Kauffman,Roche Diagnostics,"Digital Strategy Manager, APAC"
Martje,Abeldt,Remerge,Director Sales SEA
Shamil,Abidin,AllSense Pte Ltd,"VP, Marketing & Sales"
Adamson,Alagan,CtrlShift Pte Ltd,"Director, Business Development"
Ayn,Ameer,Thomson Reuters,Media Sales Planner
Louise,Au,Axis Consulting,Partner
Charlie,Baillie,RadiumOne,VP Commercial Partnerships
Biren,Balakrishnan,Tapad,"Director of Platform Solutions, APAC"
Deepa,Balji,Publicis Media APAC,"Director, Communications, Asia Pacific"
Reza,Behnam,CtrlShift Pte Ltd,Co-founder and Chairman
Miguel,Bernas,Mediacorp Pte Ltd,"Vice President, Digital Marketing"
Richard,Bleasdale,The Observatory International,"Managing Partner, Asia Pacific"
Damien,Bray,Brand New Media,CEO
Gavin,Buxton,S4M,"Managing Director, APAC"
Louise,Chan,Williams Lea Tag,Senior Account Director
Jessica,Chan,Meltwater,"Marketing Communications Manager, Southeast Asia"
Woei,Hern,IPG Mediabrands Malaysia,Executive Creative Director
Evelyn,Cheah,Exponential,"Sales Manager, Malaysia"
Ashley,Cheang,Prudential,"Senior Sales Manager, Malaysia"
Chelsea,Chen,Emotech,Founder
Evelyn,Chen,Kao (S) Pte Ltd,E-Commerce Head
Sam,Chester,MarketOne,"Business Director, APAC"
Rochelle,Chhaya,Omnicom Media Group Singapore,Managing Partner - Digital
Michelle,Ching,TotallyAwesome,Sales & Marketing Director
Mitchell,Chua,Gateway Law Corporation,Senior Associate
Stuart,Clark,IPG Mediabrands,Chief Client Officer
Toby,Codrington,Williams Lea Tag,CEO APAC & CMO
Dylan,Collins,SuperAwesome,"CEO, SuperAwesome & Chairman, TotallyAwesome"
Ben,Crawford,IPG Mediabrands,Regional Implementation Director
Paddy,Crawshaw,OMD,Head of Strategy
Priya,Darshani,MediaMath,"Head of marketing, JAPAC"
Rupen,Desai,Edelman Public Relations Worldwide Pte Ltd,"Executive Vice Chairman, Edelman APACMEA"
Miranda,Dimopoulos,IAB Singapore,CEO & Ambassador to SEA
Jennifer,Doig,"Sony Pictures Television Networks, Asia","Executive Director, Marketing and Communications"
Jean-Michel,Dumont,Ruder Finn Asia,Chairman
Jayesh,Easwaramony,InMobi,"SVP & MD, Asia Pacific, Middle East & Africa"
Sharyn,Foo,Hongkong and Shanghai Banking Corporation Limited,"Head of Marketing, Singapore and South Asia, Commercial Banking"
Mark,Froude,Bloomberg,"Head, Bloomberg Media Ad Sales APAC"
Yuki,Fujiwara,Thomson Reuters,"Head - Advertising Sales, Japan and Korea"
Weldon,Fung,Meltwater,"Managing Director, Southeast Asia"
Sylvian,Fung,Mills (Singapore) Pte Ltd,General Manager
Amrith,Ganesh,Perx Technologies,Head of Marketing
Edith,Goh,Viacom International Media Networks,"Senior Director, Advertising Sales"
Theng,Kiat,"OCBC Banks, Singapore","Chief Marketing Officer, Group Consumer Financial Services"
Mamta,Gupta,Near Co,"Regional Lead, SEA & HK"
Jonathan,Hardy,Adara,VP Sales - Asia
Lucien,Harrington,FOX Networks Group Asia,Senior Vice President of Marketing
Pritika,Hemmady,MediaMath,Sr Sales Manager
Patrick,Ho,Bloomberg,Bloomberg Media Ad Sales APAC
Nancy,Hoffmann,BMW Group,MINI Marketing Manager
Munira,Ibrahim,Thomson Reuters,"SVP, Sales & Content Solutions"
Susan,Jain,IBM Asia Pacific,Chief Marketing Officer & Client Advocacy Champion
Mike,Jeanes,Synergy Research and Consulting,Founder and Director
Laura,Kantor,foodpanda Singapore,Head of Marketing
Syahar,Khalid,CtrlShift Pte Ltd,"Senior Director, Business Development"
Alex,Khan,Oath,MD Oath Platforms APAC
Priya,Khatri,Eyeota,"General Manager, Sales & Business Development, SEA"
Ching,Ching,"OCBC, Bank of Singapore","OCBC, Bank of Singapore Head of Marketing"
Weng,Wai,Singapore Press Holdings,"Head, Marketing Communications"
Phil,Kowalik,90 Seconds,Growth Manager
Krishna,Krovi,Mosaicoon,"Managing Director, Asia Pacific"
Grace,Lai,Moove Media,"AVP, Marketing & Development"
Jane,Lam,BBC Global News Limited,Marketing Manager
Larisse,Lava,PR Newswire,Business Development Manager
Dennis,Law,Sport Singapore,Assistant Director
Iva,Lazarova,R3 Worldwide,Consultant - Business Development
Helen,Lee,ZO,MD
Desmond,Leong,90 Seconds,Growth Manager
Felicia,Li-Gaillard,Integral Ad Science (IAS),"Marketing Director, APAC"
Virginia,Lim,"Sony Pictures Television Networks, Asia","Senior Vice President and Head of Content, Production and Marketing"
Gwendolene,Lim,CNBC Asia,"Marketing Director, CNBC Asia"
Bee,Bee,DBS,Marketing
Kejin,Lim,PR Newswire,Account Director
Sean,Loke,Landor,Business Development Manager
Ian,Loon,Starcom,MD
Vikas,Malavalli,Mosaicoon,Marketing Operations Specialist
Syahrizan,Mansor,Viacom International Media Networks,"Vice President, Nickelodeon Brand, Asia"
Colin,Marson,YouGov Singapore Pte. Limited,"CEO, Asia Pacific"
James,Maxfield,2CV Research,Associate Director
Prantik,Mazumdar,Happy Marketer,Managing Partner
Pedro,Mendonca,Diageo,General Manager Innovation APAC
Sadhan,Mishra,OMD,Global Business Director
Adam,Monaghan,AVADO,Marketing Lead Asia-Pacific
Byron,Munson,Datorama,"Director, APAC"
Chloe,Neo,OMD Singapore,Managing Director
Max,Newnham,CNBC Asia,Director of Brand Creative Strategy
Ren,Jye,PRecious Communications,Senior Client Associate
Romanus,Ng,South China Morning Post,"General Manager, Advertising & Marketing Solutions"
Cynthia,Ong,Mills (Singapore) Pte Ltd,Account Manager
Rebekah,Orme,Hill+Knowlton Strategies,APAC Regional Director
Jonathan,Pacey,Outbrain Singapore,Head of Brands and Agencies SEA
BiJun,Pan,Mills (Singapore) Pte Ltd,Account Executive
Winston,Phua,Philips APAC,Philips Healthcare APAC CMO
Clarence,Pong,Mediacorp Pte Ltd,"Lead, Brand & Communications"
Elaine,Quek,Lloyds of London,"Regional Head, Marketing and Communications, Asia Pacific"
Shannon,Quek,The Smalls,Business Development Director - APAC
Vijayan,Rao,Perx Technologies,Head of Sales
Thomas,Reblora,Roche Diagnostics,"Head, Solution Centre Marketing, Sales & Service APAC"
Kevin,Rooney,Mindshare APAC,Chief Growth Officer
Henry,Schenker,Tapad,"Vice President, APAC"
Matt,Scotton,IPG Mediabrands,"Chief Strategy Officer, APAC"
Patrick,Searle,GetCRAFT,CEO
Aleetza,Senn,Sparkline,CEO & Co-Founder
Ryan,Shaw,Landor Associates,"Creative Director, Southeast Asia"
April,Shepherd,Aspire,Head of Practice
Alex,Sibois,Lotame,Managing Director APAC
Shoo,Shyuan,Bloomberg,Bloomberg Media Ad Sales APAC
Pooja,Singh,ESSENCE,Communications and Marketing Manager
Harbans,Singh,Sport Singapore,Deputy Director
Chatri,Sityodtong,ONE Championship,Chairman & CEO
Kathryn,Sloane,SGK,"Director of Growth, APAC"
Steve,Smith,Steve Smith Leadership,Managing Director
Wendy,Soh,Tickled Media,Lead Account Director - Asia
Ranga,Somanathan,OMD,"CEO, OMG Singapore"
Ric,Stockfis,Ink,"Managing Director, APAC"
Arthur,Sung,Carat,Chief Executive Officer
Cheryl,Tan,Spectrum Group,Country Manager
Denise,Tan,Innity,Marketing Communications
Melissa,Tang,Mindshare Singapore,Managing Director
Carol,Tay,Oath,"Head of Sales, SEA"
Shirley,Tay,Y&R Singapore,CEO
Yvette,Templar,"Allied World Assurance Company, Ltd","VP, Marketing & Communication Group"
Celeste,Teo,RE/digital,Strategy Manager
Chris,Tew,3radical,EVP APAC
Charlie,Thomas,The Talent Business,CEO - Asia Pacific
Carrie,Tsoi,FreemanXP,"Marketing Director, APAC"
Susana,Tsui,PHD Asia Pacific,"CEO, Asia Pacific"
Vinoaj,Vijeyakumaar,Sparkline,CDO & Co-founder
Andrew,Vine,The Insight Bureau,Managing Director
Lee,Walsh,NEWBASE,"Regional Managing Director, South East Asia & India"
Calvin,Wan,Oath,Business Lead
Joy,Q.,Mindshare APAC,New Business Manager
Sheryl,Wee,BMW Group,MINI Senior Marketing Executive
Puspita,Winawati,Pocari,Head of Overseas Development
Robert,Winkelmann,Dreamscape Networks,Group Marketing Lead
Mei,Wai,Aspial Lee - Hwa Jewellery,Business Director
Sheryl,Wong,Spotify,Asia Marketing Head
Kevin,Wong,Orii ring,Founder
Sean,Wong,IPG Mediabrands Malaysia,Vice President
Rayson,Woon,3radical Pte Ltd,Digital Marketer
Lawrence,Yang,iProspect,"Managing Director, Hong Kong"
Ivan,Yeow,Monster Interactive,Business Director
Juliette,Derosiaux,Click2View,
Eugene,Leong,YouGov Singapore Pte. Limited,
